Name,ID Number,Age,Gender,Citizen status,CDA Balance/Medisave Balance/N.A.
Adrain,S1234567A,10,M,SC,50
David,G1234567A,12,M,PR
Gabriel,F1234567A,8,M,Foreigner
Benjamin,S2345678A,35,M,SC,100
Edda,G2345678A,38,F,PR,80
Hannah,F2345678A,33,F,Foreigner
Christina,S3456789A,70,F,SC
Febe,G3456789A,72,F,PR
Ian,F3456789A,66,M,Foreigner
